Activated environment for using: gcc compilers, version 4.7.2
Activated environment for using: Intel Compilers, version 11.1 (073)
Activated environment for using: OpenMPI, version 1.4.3
Activated environment for using: Intel Compilers, version 11.1 (073)
Provide access to Perfctr (Linux Performance-Monitoring Counters) include files and libraries Version 2.6.42
Activated environment for using: Performance Application Programming Interface (PAPI) Version 4.2.0
gcc/4.7.2(7):ERROR:150: Module 'gcc/4.7.2' conflicts with the currently loaded module(s) 'intel/compilers/11.1.073'
gcc/4.7.2(7):ERROR:102: Tcl command execution failed: conflict "intel/compilers"

Activated environment for using: OpenMPI, version 1.4.3
Activated environment for using: Intel Compilers, version 11.1 (073)
Activated environment for using: Performance Application Programming Interface (PAPI) Version 4.2.0
#procs: 16
METRICS OMP_A 16 4179322 10 245730 213888 459618
METRICS OMP_A 16 4198611 10 84709 77895 162604
METRICS OMP_A 16 2251101 2380 127701 114680 242381
METRICS OMP_A 16 2893457 256 89914 77704 167618
METRICS OMP_A 16 5308674 32303 417600 331248 748848
METRICS OMP_A 16 6439115 29155 508157 377326 885483
METRICS OMP_A 16 2359721 6458 110769 98201 208970
METRICS OMP_A 16 3396201 1632 176587 155711 332298
METRICS OMP_A 16 1555040 4227 106214 91064 197278
METRICS OMP_A 16 3588290 3 20936 19847 40783
