Activated environment for using: gcc compilers, version 4.7.2
Activated environment for using: Intel Compilers, version 11.1 (073)
Activated environment for using: OpenMPI, version 1.4.3
Activated environment for using: Intel Compilers, version 11.1 (073)
Provide access to Perfctr (Linux Performance-Monitoring Counters) include files and libraries Version 2.6.42
Activated environment for using: Performance Application Programming Interface (PAPI) Version 4.2.0
gcc/4.7.2(7):ERROR:150: Module 'gcc/4.7.2' conflicts with the currently loaded module(s) 'intel/compilers/11.1.073'
gcc/4.7.2(7):ERROR:102: Tcl command execution failed: conflict "intel/compilers"

Activated environment for using: OpenMPI, version 1.4.3
Activated environment for using: Intel Compilers, version 11.1 (073)
Activated environment for using: Performance Application Programming Interface (PAPI) Version 4.2.0
#procs: 8
METRICS OMP_A 8 3691022 39664 312758 78296 391054
METRICS OMP_A 8 3982318 23340 161138 51640 212778
METRICS OMP_A 8 3638914 22798 169697 42719 212416
METRICS OMP_A 8 2556526 13803 81636 33140 114776
METRICS OMP_A 8 5118643 40931 283293 81275 364568
METRICS OMP_A 8 484783 52590 430082 115127 545209
METRICS OMP_A 8 2185524 7253 44306 14786 59092
METRICS OMP_A 8 2832637 16430 114447 30992 145439
METRICS OMP_A 8 5585591 68403 426739 141054 567793
METRICS OMP_A 8 4438148 39687 313923 73498 387421
