Activated environment for using: gcc compilers, version 4.7.2
Activated environment for using: Intel Compilers, version 11.1 (073)
Activated environment for using: OpenMPI, version 1.4.3
Activated environment for using: Intel Compilers, version 11.1 (073)
Provide access to Perfctr (Linux Performance-Monitoring Counters) include files and libraries Version 2.6.42
Activated environment for using: Performance Application Programming Interface (PAPI) Version 4.2.0
gcc/4.7.2(7):ERROR:150: Module 'gcc/4.7.2' conflicts with the currently loaded module(s) 'intel/compilers/11.1.073'
gcc/4.7.2(7):ERROR:102: Tcl command execution failed: conflict "intel/compilers"

Activated environment for using: OpenMPI, version 1.4.3
Activated environment for using: Intel Compilers, version 11.1 (073)
Activated environment for using: Performance Application Programming Interface (PAPI) Version 4.2.0
#procs: 64
METRICS OMP_A 64 5445387 7364 968316 1051277 2019593
METRICS OMP_A 64 4036997 85 340549 283594 624143
METRICS OMP_A 64 4035930 8479 2542632 2608826 5151458
METRICS OMP_A 64 3252444 155 413061 364718 777779
METRICS OMP_A 64 6327322 271 450658 455671 906329
METRICS OMP_A 64 6591706 57 101864 99160 201024
METRICS OMP_A 64 7109017 60 120442 111361 231803
METRICS OMP_A 64 3785551 2881 186967 176141 363108
METRICS OMP_A 64 7596323 53 170544 138687 309231
METRICS OMP_A 64 4130141 1499 124994 120753 245747
/var/spool/torque/mom_priv/jobs/1516566.login006.sc.cluster.tamu.SC: line 15: 32098 Segmentation fault      OMP_NUM_THREADS=64 ./a_bidijkstra < test_input
