Activated environment for using: gcc compilers, version 4.7.2
Activated environment for using: Intel Compilers, version 11.1 (073)
Activated environment for using: OpenMPI, version 1.4.3
Activated environment for using: Intel Compilers, version 11.1 (073)
Provide access to Perfctr (Linux Performance-Monitoring Counters) include files and libraries Version 2.6.42
Activated environment for using: Performance Application Programming Interface (PAPI) Version 4.2.0
gcc/4.7.2(7):ERROR:150: Module 'gcc/4.7.2' conflicts with the currently loaded module(s) 'intel/compilers/11.1.073'
gcc/4.7.2(7):ERROR:102: Tcl command execution failed: conflict "intel/compilers"

Activated environment for using: OpenMPI, version 1.4.3
Activated environment for using: Intel Compilers, version 11.1 (073)
Activated environment for using: Performance Application Programming Interface (PAPI) Version 4.2.0
#procs: 1
METRICS OMP_A 1 -4974374 36122 272904 13624 286528
METRICS OMP_A 1 73395 38034 285766 15144 300910
METRICS OMP_A 1 387331 44098 374597 19289 393886
METRICS OMP_A 1 2538864 32542 222325 11590 233915
METRICS OMP_A 1 186103 56631 432026 22988 455014
METRICS OMP_A 1 100992 60761 431025 21951 452976
METRICS OMP_A 1 2177240 23387 152910 8286 161196
METRICS OMP_A 1 2775218 25114 169753 8963 178716
METRICS OMP_A 1 67311 58297 493090 27232 520322
METRICS OMP_A 1 54736 20125 148475 7705 156180
