Activated environment for using: gcc compilers, version 4.7.2
Activated environment for using: Intel Compilers, version 11.1 (073)
Activated environment for using: OpenMPI, version 1.4.3
Activated environment for using: Intel Compilers, version 11.1 (073)
Provide access to Perfctr (Linux Performance-Monitoring Counters) include files and libraries Version 2.6.42
Activated environment for using: Performance Application Programming Interface (PAPI) Version 4.2.0
gcc/4.7.2(7):ERROR:150: Module 'gcc/4.7.2' conflicts with the currently loaded module(s) 'intel/compilers/11.1.073'
gcc/4.7.2(7):ERROR:102: Tcl command execution failed: conflict "intel/compilers"

Activated environment for using: OpenMPI, version 1.4.3
Activated environment for using: Intel Compilers, version 11.1 (073)
Activated environment for using: Performance Application Programming Interface (PAPI) Version 4.2.0
#procs: 128
METRICS OMP_A 128 4865211 57 933396 1172202 2105598
METRICS OMP_A 128 3644417 106 385748 405504 791252
METRICS OMP_A 128 8651954 1928 887723 979736 1867459
METRICS OMP_A 128 2556526 13783 361283 436411 797694
METRICS OMP_A 128 8536249 561 320047 347701 667748
METRICS OMP_A 128 5324587 2 485994 456881 942875
METRICS OMP_A 128 2363591 444 282015 306524 588539
METRICS OMP_A 128 2888984 15 5491173 6250398 11741571
METRICS OMP_A 128 -18787995 26005 1896041 1457532 3353573
METRICS OMP_A 128 4817822 3564 11768998 13835647 25604645
/var/spool/torque/mom_priv/jobs/1516561.login006.sc.cluster.tamu.SC: line 15: 14149 Segmentation fault      OMP_NUM_THREADS=128 ./a_bidijkstra < test_input
