Activated environment for using: gcc compilers, version 4.7.2
Activated environment for using: Intel Compilers, version 11.1 (073)
Activated environment for using: OpenMPI, version 1.4.3
Activated environment for using: Intel Compilers, version 11.1 (073)
Provide access to Perfctr (Linux Performance-Monitoring Counters) include files and libraries Version 2.6.42
Activated environment for using: Performance Application Programming Interface (PAPI) Version 4.2.0
gcc/4.7.2(7):ERROR:150: Module 'gcc/4.7.2' conflicts with the currently loaded module(s) 'intel/compilers/11.1.073'
gcc/4.7.2(7):ERROR:102: Tcl command execution failed: conflict "intel/compilers"

Activated environment for using: OpenMPI, version 1.4.3
Activated environment for using: Intel Compilers, version 11.1 (073)
Activated environment for using: Performance Application Programming Interface (PAPI) Version 4.2.0
#procs: 8
METRICS OMP 8 4109910 111117 467138 232936 700074
METRICS OMP 8 3950204 98935 417753 208090 625843
METRICS OMP 8 3580522 81028 347594 164802 512396
METRICS OMP 8 2645234 62094 234171 130822 364993
METRICS OMP 8 5191069 145424 720922 284923 1005845
METRICS OMP 8 6941344 183063 1006951 344594 1351545
METRICS OMP 8 2449959 50195 210537 103000 313537
METRICS OMP 8 2975465 45774 184221 94240 278461
METRICS OMP 8 5410486 153767 593112 320918 914030
METRICS OMP 8 4396949 144425 743362 280274 1023636
