Activated environment for using: gcc compilers, version 4.7.2
Activated environment for using: Intel Compilers, version 11.1 (073)
Activated environment for using: OpenMPI, version 1.4.3
Activated environment for using: Intel Compilers, version 11.1 (073)
Provide access to Perfctr (Linux Performance-Monitoring Counters) include files and libraries Version 2.6.42
Activated environment for using: Performance Application Programming Interface (PAPI) Version 4.2.0
gcc/4.7.2(7):ERROR:150: Module 'gcc/4.7.2' conflicts with the currently loaded module(s) 'intel/compilers/11.1.073'
gcc/4.7.2(7):ERROR:102: Tcl command execution failed: conflict "intel/compilers"

Activated environment for using: OpenMPI, version 1.4.3
Activated environment for using: Intel Compilers, version 11.1 (073)
Activated environment for using: Performance Application Programming Interface (PAPI) Version 4.2.0
#procs: 16
METRICS OMP 16 3976143 90088 651006 600359 1251365
METRICS OMP 16 3812176 87320 825830 744802 1570632
METRICS OMP 16 4371726 18965 226872 212216 439088
METRICS OMP 16 2795463 21190 312210 295841 608051
METRICS OMP 16 5110022 102183 1094313 962152 2056465
METRICS OMP 16 6551988 83082 2080169 1793181 3873350
METRICS OMP 16 2754312 39907 327209 309798 637007
METRICS OMP 16 2978227 49 336755 313816 650571
METRICS OMP 16 7770372 37 749440 716976 1466416
METRICS OMP 16 5884542 66381 605466 553532 1158998
/var/spool/torque/mom_priv/jobs/1512832.login006.sc.cluster.tamu.SC: line 15: 28367 Segmentation fault      OMP_NUM_THREADS=16 ./bidijkstra < test_input
