Activated environment for using: gcc compilers, version 4.7.2
Activated environment for using: Intel Compilers, version 11.1 (073)
Activated environment for using: OpenMPI, version 1.4.3
Activated environment for using: Intel Compilers, version 11.1 (073)
Provide access to Perfctr (Linux Performance-Monitoring Counters) include files and libraries Version 2.6.42
Activated environment for using: Performance Application Programming Interface (PAPI) Version 4.2.0
gcc/4.7.2(7):ERROR:150: Module 'gcc/4.7.2' conflicts with the currently loaded module(s) 'intel/compilers/11.1.073'
gcc/4.7.2(7):ERROR:102: Tcl command execution failed: conflict "intel/compilers"

Activated environment for using: OpenMPI, version 1.4.3
Activated environment for using: Intel Compilers, version 11.1 (073)
Activated environment for using: Performance Application Programming Interface (PAPI) Version 4.2.0
#procs: 32
METRICS OMP 32 3756585 25 582709 546372 1129081
METRICS OMP 32 4744837 104 989708 894352 1884060
METRICS OMP 32 3757063 1 379271 363443 742714
METRICS OMP 32 3112373 14 429281 412958 842239
METRICS OMP 32 7370111 15 645020 582258 1227278
METRICS OMP 32 7220180 350 1065529 941154 2006683
METRICS OMP 32 3784347 35 332856 318659 651515
METRICS OMP 32 3231687 7 509945 487151 997096
METRICS OMP 32 7848715 7 1611123 1532924 3144047
METRICS OMP 32 5820939 6 734887 676400 1411287
/var/spool/torque/mom_priv/jobs/1512845.login006.sc.cluster.tamu.SC: line 15: 22940 Segmentation fault      OMP_NUM_THREADS=32 ./bidijkstra < test_input
