Activated environment for using: gcc compilers, version 4.7.2
Activated environment for using: Intel Compilers, version 11.1 (073)
Activated environment for using: OpenMPI, version 1.4.3
Activated environment for using: Intel Compilers, version 11.1 (073)
Provide access to Perfctr (Linux Performance-Monitoring Counters) include files and libraries Version 2.6.42
Activated environment for using: Performance Application Programming Interface (PAPI) Version 4.2.0
gcc/4.7.2(7):ERROR:150: Module 'gcc/4.7.2' conflicts with the currently loaded module(s) 'intel/compilers/11.1.073'
gcc/4.7.2(7):ERROR:102: Tcl command execution failed: conflict "intel/compilers"

Activated environment for using: OpenMPI, version 1.4.3
Activated environment for using: Intel Compilers, version 11.1 (073)
Activated environment for using: Performance Application Programming Interface (PAPI) Version 4.2.0
METRICS MPI 4 3408985 198765 1455926 1476325 2932251
METRICS MPI 4 3812176 167145 1207202 1240024 2447226
METRICS MPI 4 3844788 126639 907388 936220 1843608
METRICS MPI 4 2538864 95482 660558 708426 1368984
METRICS MPI 4 5111835 241614 1835759 1787849 3623608
METRICS MPI 4 6427329 403258 3067446 2983779 6051225
METRICS MPI 4 2433241 77252 514742 573748 1088490
METRICS MPI 4 2940012 159530 1139444 1185040 2324484
METRICS MPI 4 5398415 217219 1521282 1611597 3132879
METRICS MPI 4 4558399 253978 1908803 1887017 3795820
