Activated environment for using: gcc compilers, version 4.7.2
Activated environment for using: Intel Compilers, version 11.1 (073)
Activated environment for using: OpenMPI, version 1.4.3
Activated environment for using: Intel Compilers, version 11.1 (073)
Provide access to Perfctr (Linux Performance-Monitoring Counters) include files and libraries Version 2.6.42
Activated environment for using: Performance Application Programming Interface (PAPI) Version 4.2.0
gcc/4.7.2(7):ERROR:150: Module 'gcc/4.7.2' conflicts with the currently loaded module(s) 'intel/compilers/11.1.073'
gcc/4.7.2(7):ERROR:102: Tcl command execution failed: conflict "intel/compilers"

Activated environment for using: OpenMPI, version 1.4.3
Activated environment for using: Intel Compilers, version 11.1 (073)
Activated environment for using: Performance Application Programming Interface (PAPI) Version 4.2.0
METRICS MPI 16 3976143 90088 1301770 5918342 7220112
METRICS MPI 16 3812176 87319 1265557 5829456 7095013
METRICS MPI 16 3872888 55012 806372 3657882 4464254
METRICS MPI 16 2645234 49101 727316 3264308 3991624
METRICS MPI 16 5110022 102183 1652247 6752895 8405142
METRICS MPI 16 6856541 165616 2665041 11018359 13683400
METRICS MPI 16 2177240 41368 627675 2713858 3341533
METRICS MPI 16 2975465 44553 642494 2928156 3570650
METRICS MPI 16 5442233 121286 1853147 7868470 9721617
METRICS MPI 16 4678370 107619 1697232 7023559 8720791
