Activated environment for using: gcc compilers, version 4.7.2
Activated environment for using: Intel Compilers, version 11.1 (073)
Activated environment for using: OpenMPI, version 1.4.3
Activated environment for using: Intel Compilers, version 11.1 (073)
Provide access to Perfctr (Linux Performance-Monitoring Counters) include files and libraries Version 2.6.42
Activated environment for using: Performance Application Programming Interface (PAPI) Version 4.2.0
gcc/4.7.2(7):ERROR:150: Module 'gcc/4.7.2' conflicts with the currently loaded module(s) 'intel/compilers/11.1.073'
gcc/4.7.2(7):ERROR:102: Tcl command execution failed: conflict "intel/compilers"

Activated environment for using: OpenMPI, version 1.4.3
Activated environment for using: Intel Compilers, version 11.1 (073)
Activated environment for using: Performance Application Programming Interface (PAPI) Version 4.2.0
#procs: 32
METRICS OMP_A 32 4303629 112 290343 271267 561610
METRICS OMP_A 32 3885858 11092 284942 265407 550349
METRICS OMP_A 32 7973283 36 393550 375736 769286
METRICS OMP_A 32 4688940 508 184192 165453 349645
METRICS OMP_A 32 5384756 2621 256899 230414 487313
METRICS OMP_A 32 5116534 9189 343719 299858 643577
METRICS OMP_A 32 2185524 7253 73629 71258 144887
METRICS OMP_A 32 2929637 4 155578 138294 293872
METRICS OMP_A 32 5414563 16 310246 282313 592559
METRICS OMP_A 32 4677869 19626 1368229 1144256 2512485
/var/spool/torque/mom_priv/jobs/1516564.login006.sc.cluster.tamu.SC: line 15: 26718 Segmentation fault      OMP_NUM_THREADS=32 ./a_bidijkstra < test_input
