Activated environment for using: gcc compilers, version 4.7.2
Activated environment for using: Intel Compilers, version 11.1 (073)
Activated environment for using: OpenMPI, version 1.4.3
Activated environment for using: Intel Compilers, version 11.1 (073)
Provide access to Perfctr (Linux Performance-Monitoring Counters) include files and libraries Version 2.6.42
Activated environment for using: Performance Application Programming Interface (PAPI) Version 4.2.0
gcc/4.7.2(7):ERROR:150: Module 'gcc/4.7.2' conflicts with the currently loaded module(s) 'intel/compilers/11.1.073'
gcc/4.7.2(7):ERROR:102: Tcl command execution failed: conflict "intel/compilers"

Activated environment for using: OpenMPI, version 1.4.3
Activated environment for using: Intel Compilers, version 11.1 (073)
Activated environment for using: Performance Application Programming Interface (PAPI) Version 4.2.0
#procs: 4
METRICS OMP_A 4 113695 27585 292594 30543 323137
METRICS OMP_A 4 3849289 37171 273213 34149 307362
METRICS OMP_A 4 3630619 27116 203383 22860 226243
METRICS OMP_A 4 2554181 15650 91727 16792 108519
METRICS OMP_A 4 5118643 40853 295272 35413 330685
METRICS OMP_A 4 423572 50812 466708 49832 516540
METRICS OMP_A 4 2185524 7302 46769 6769 53538
METRICS OMP_A 4 2832637 16433 113870 15822 129692
METRICS OMP_A 4 74214 56313 368407 52712 421119
METRICS OMP_A 4 93809 38214 331042 33667 364709
