Activated environment for using: gcc compilers, version 4.7.2
Activated environment for using: Intel Compilers, version 11.1 (073)
Activated environment for using: OpenMPI, version 1.4.3
Activated environment for using: Intel Compilers, version 11.1 (073)
Provide access to Perfctr (Linux Performance-Monitoring Counters) include files and libraries Version 2.6.42
Activated environment for using: Performance Application Programming Interface (PAPI) Version 4.2.0
gcc/4.7.2(7):ERROR:150: Module 'gcc/4.7.2' conflicts with the currently loaded module(s) 'intel/compilers/11.1.073'
gcc/4.7.2(7):ERROR:102: Tcl command execution failed: conflict "intel/compilers"

Activated environment for using: OpenMPI, version 1.4.3
Activated environment for using: Intel Compilers, version 11.1 (073)
Activated environment for using: Performance Application Programming Interface (PAPI) Version 4.2.0
#procs: 64
METRICS OMP 64 4321649 18 1036941 1043869 2080810
METRICS OMP 64 7655385 5 1074409 1039203 2113612
METRICS OMP 64 4137294 535 786557 763982 1550539
/var/spool/torque/mom_priv/jobs/1512844.login006.sc.cluster.tamu.SC: line 15: 14266 Segmentation fault      OMP_NUM_THREADS=64 ./bidijkstra < test_input
