Activated environment for using: gcc compilers, version 4.7.2
Activated environment for using: Intel Compilers, version 11.1 (073)
Activated environment for using: OpenMPI, version 1.4.3
Activated environment for using: Intel Compilers, version 11.1 (073)
Provide access to Perfctr (Linux Performance-Monitoring Counters) include files and libraries Version 2.6.42
Activated environment for using: Performance Application Programming Interface (PAPI) Version 4.2.0
gcc/4.7.2(7):ERROR:150: Module 'gcc/4.7.2' conflicts with the currently loaded module(s) 'intel/compilers/11.1.073'
gcc/4.7.2(7):ERROR:102: Tcl command execution failed: conflict "intel/compilers"

Activated environment for using: OpenMPI, version 1.4.3
Activated environment for using: Intel Compilers, version 11.1 (073)
Activated environment for using: Performance Application Programming Interface (PAPI) Version 4.2.0
METRICS MPI 1 1343931 443760 1944809 38487 1983296
METRICS MPI 1 446141 236027 925576 19329 944905
METRICS MPI 1 1434872 217354 853746 17672 871418
METRICS MPI 1 884607 111182 404045 9085 413130
METRICS MPI 1 1118891 283666 1129038 23254 1152292
METRICS MPI 1 745354 199878 786689 16353 803042
METRICS MPI 1 922689 133257 596786 12800 609586
METRICS MPI 1 641859 231299 933815 18998 952813
METRICS MPI 1 1676268 375257 1493174 30675 1523849
METRICS MPI 1 332284 126168 475303 10268 485571
