Activated environment for using: gcc compilers, version 4.7.2
Activated environment for using: Intel Compilers, version 11.1 (073)
Activated environment for using: OpenMPI, version 1.4.3
Activated environment for using: Intel Compilers, version 11.1 (073)
Provide access to Perfctr (Linux Performance-Monitoring Counters) include files and libraries Version 2.6.42
Activated environment for using: Performance Application Programming Interface (PAPI) Version 4.2.0
gcc/4.7.2(7):ERROR:150: Module 'gcc/4.7.2' conflicts with the currently loaded module(s) 'intel/compilers/11.1.073'
gcc/4.7.2(7):ERROR:102: Tcl command execution failed: conflict "intel/compilers"

Activated environment for using: OpenMPI, version 1.4.3
Activated environment for using: Intel Compilers, version 11.1 (073)
Activated environment for using: Performance Application Programming Interface (PAPI) Version 4.2.0
METRICS MPI 32 3665949 92183 2069548 14294774 16364322
METRICS MPI 32 3955806 62181 1412560 9603584 11016144
METRICS MPI 32 3757063 55060 1160136 8562618 9722754
METRICS MPI 32 2645234 49310 1133754 7557923 8691677
METRICS MPI 32 5396226 61442 1362560 9553939 10916499
METRICS MPI 32 7032016 90256 2084447 14016032 16100479
METRICS MPI 32 2326106 38353 854103 5944264 6798367
METRICS MPI 32 2921687 40561 822000 6329326 7151326
METRICS MPI 32 5321640 105958 2301077 16426917 18727994
METRICS MPI 32 5626240 80816 1748048 12633730 14381778
