Activated environment for using: gcc compilers, version 4.7.2
Activated environment for using: Intel Compilers, version 11.1 (073)
Activated environment for using: OpenMPI, version 1.4.3
Activated environment for using: Intel Compilers, version 11.1 (073)
Provide access to Perfctr (Linux Performance-Monitoring Counters) include files and libraries Version 2.6.42
Activated environment for using: Performance Application Programming Interface (PAPI) Version 4.2.0
gcc/4.7.2(7):ERROR:150: Module 'gcc/4.7.2' conflicts with the currently loaded module(s) 'intel/compilers/11.1.073'
gcc/4.7.2(7):ERROR:102: Tcl command execution failed: conflict "intel/compilers"

Activated environment for using: OpenMPI, version 1.4.3
Activated environment for using: Intel Compilers, version 11.1 (073)
Activated environment for using: Performance Application Programming Interface (PAPI) Version 4.2.0
METRICS MPI 128 3665949 79745 22564082 113787563 136351645
METRICS MPI 128 3955806 61186 17366569 88850949 106217518
METRICS MPI 128 3647267 50260 12774703 73812140 86586843
METRICS MPI 128 2645234 49310 12655068 71752992 84408060
METRICS MPI 128 6195926 69756 18180576 100222806 118403382
METRICS MPI 128 7148275 92740 23638069 135073099 158711168
=>> PBS: job killed: walltime 7238 exceeded limit 7200
mpirun: killing job...

--------------------------------------------------------------------------
mpirun noticed that process rank 0 with PID 14471 on node node126 exited on signal 0 (Unknown signal 0).
--------------------------------------------------------------------------
mpirun: abort is already in progress...hit ctrl-c again to forcibly terminate

mpirun: clean termination accomplished

128 total processes killed (some possibly by mpirun during cleanup)
