Activated environment for using: gcc compilers, version 4.7.2
Activated environment for using: Intel Compilers, version 11.1 (073)
Activated environment for using: OpenMPI, version 1.4.3
Activated environment for using: Intel Compilers, version 11.1 (073)
Provide access to Perfctr (Linux Performance-Monitoring Counters) include files and libraries Version 2.6.42
Activated environment for using: Performance Application Programming Interface (PAPI) Version 4.2.0
gcc/4.7.2(7):ERROR:150: Module 'gcc/4.7.2' conflicts with the currently loaded module(s) 'intel/compilers/11.1.073'
gcc/4.7.2(7):ERROR:102: Tcl command execution failed: conflict "intel/compilers"

Activated environment for using: OpenMPI, version 1.4.3
Activated environment for using: Intel Compilers, version 11.1 (073)
Activated environment for using: Performance Application Programming Interface (PAPI) Version 4.2.0
METRICS MPI 2 3450833 333094 1852466 956778 2809244
METRICS MPI 2 3812176 330809 1869533 940622 2810155
METRICS MPI 2 3580522 256188 1403776 724691 2128467
METRICS MPI 2 2578632 170285 901884 480576 1382460
METRICS MPI 2 5111236 441644 2587874 1262451 3850325
METRICS MPI 2 6408295 626971 3605883 1797855 5403738
METRICS MPI 2 2177240 144540 733129 420344 1153473
METRICS MPI 2 2775218 269690 1484468 775331 2259799
METRICS MPI 2 5324889 340447 1808000 984780 2792780
METRICS MPI 2 4396983 433118 2520823 1229794 3750617
