Activated environment for using: gcc compilers, version 4.7.2
Activated environment for using: Intel Compilers, version 11.1 (073)
Activated environment for using: OpenMPI, version 1.4.3
Activated environment for using: Intel Compilers, version 11.1 (073)
Provide access to Perfctr (Linux Performance-Monitoring Counters) include files and libraries Version 2.6.42
Activated environment for using: Performance Application Programming Interface (PAPI) Version 4.2.0
gcc/4.7.2(7):ERROR:150: Module 'gcc/4.7.2' conflicts with the currently loaded module(s) 'intel/compilers/11.1.073'
gcc/4.7.2(7):ERROR:102: Tcl command execution failed: conflict "intel/compilers"

Activated environment for using: OpenMPI, version 1.4.3
Activated environment for using: Intel Compilers, version 11.1 (073)
Activated environment for using: Performance Application Programming Interface (PAPI) Version 4.2.0
METRICS MPI 8 4109910 111117 987440 2044630 3032070
METRICS MPI 8 3950204 98935 844544 1876317 2720861
METRICS MPI 8 3580522 81028 720618 1533886 2254504
METRICS MPI 8 2645234 62094 508684 1177177 1685861
METRICS MPI 8 5191069 145424 1304647 2741177 4045824
METRICS MPI 8 6941344 183063 1762979 3433028 5196007
METRICS MPI 8 2449959 50195 430380 952762 1383142
METRICS MPI 8 2975465 45774 381457 868829 1250286
METRICS MPI 8 5410486 153767 1219698 2925126 4144824
METRICS MPI 8 4396949 144425 1347197 2732490 4079687
